\relax 
\providecommand\hyper@newdestlabel[2]{}
\providecommand\HyperFirstAtBeginDocument{\AtBeginDocument}
\HyperFirstAtBeginDocument{\ifx\hyper@anchor\@undefined
\global\let\oldcontentsline\contentsline
\gdef\contentsline#1#2#3#4{\oldcontentsline{#1}{#2}{#3}}
\global\let\oldnewlabel\newlabel
\gdef\newlabel#1#2{\newlabelxx{#1}#2}
\gdef\newlabelxx#1#2#3#4#5#6{\oldnewlabel{#1}{{#2}{#3}}}
\AtEndDocument{\ifx\hyper@anchor\@undefined
\let\contentsline\oldcontentsline
\let\newlabel\oldnewlabel
\fi}
\fi}
\global\let\hyper@last\relax 
\gdef\HyperFirstAtBeginDocument#1{#1}
\providecommand\HyField@AuxAddToFields[1]{}
\providecommand\HyField@AuxAddToCoFields[2]{}
\@writefile{lof}{\contentsline {figure}{\numberline {1}{\ignorespaces Project Gantt Diagram}}{}{figure.1}}
\newlabel{fig:project-gantt-diagram}{{1}{}{Project Gantt Diagram}{figure.1}{}}
\@writefile{lof}{\contentsline {figure}{\numberline {2}{\ignorespaces Primary Use Cases}}{}{figure.2}}
\newlabel{fig:project-use-cases}{{2}{}{Primary Use Cases}{figure.2}{}}
\@writefile{lof}{\contentsline {figure}{\numberline {3}{\ignorespaces System Sequence Diagram}}{}{figure.3}}
\newlabel{fig:system-sequence}{{3}{}{System Sequence Diagram}{figure.3}{}}
\@writefile{lof}{\contentsline {figure}{\numberline {4}{\ignorespaces Project Domain Model}}{}{figure.4}}
\newlabel{fig:domain-model}{{4}{}{Project Domain Model}{figure.4}{}}
\@writefile{lof}{\contentsline {figure}{\numberline {5}{\ignorespaces Register Sequence Diagram}}{}{figure.5}}
\newlabel{fig:register-sequence}{{5}{}{Register Sequence Diagram}{figure.5}{}}
\@writefile{lof}{\contentsline {figure}{\numberline {6}{\ignorespaces Login Sequence Diagram}}{}{figure.6}}
\newlabel{fig:login-sequence}{{6}{}{Login Sequence Diagram}{figure.6}{}}
\@writefile{lof}{\contentsline {figure}{\numberline {7}{\ignorespaces Play Game Sequence Diagram}}{}{figure.7}}
\newlabel{fig:play-game-sequence}{{7}{}{Play Game Sequence Diagram}{figure.7}{}}
\@writefile{lof}{\contentsline {figure}{\numberline {8}{\ignorespaces Project Design Model}}{}{figure.8}}
\newlabel{fig:project-design-model}{{8}{}{Project Design Model}{figure.8}{}}
\@writefile{lof}{\contentsline {figure}{\numberline {9}{\ignorespaces cloc-1.76 Report}}{}{figure.9}}
\newlabel{fig:cloc-reportl}{{9}{}{cloc-1.76 Report}{figure.9}{}}
